\relax 
\citation{Koch14}
\citation{llvm-mergefunc}
\citation{Koch14}
\citation{Koch14}
\citation{Koch14}
\citation{code-dup}
\citation{Pat-Hen}
\@writefile{toc}{\contentsline {chapter}{\numberline {1}Introduction}{7}}
\@writefile{lof}{\addvspace {10\p@ }}
\@writefile{lot}{\addvspace {10\p@ }}
\newlabel{ch:Introduction}{{1}{7}}
\@writefile{toc}{\contentsline {section}{\numberline {1.1}Overview}{7}}
\@writefile{toc}{\contentsline {section}{\numberline {1.2}Motivation}{7}}
\citation{Koch14}
\citation{Koch14}
\@writefile{toc}{\contentsline {section}{\numberline {1.3}Main Contributions}{8}}
\@writefile{toc}{\contentsline {section}{\numberline {1.4}Thesis Organisation}{9}}
\citation{Pat-Hen}
\citation{Pat-Hen}
\citation{Pat-Hen}
\citation{eng-comp}
\citation{eng-comp}
\citation{cs143}
\citation{code-dup}
\@writefile{toc}{\contentsline {chapter}{\numberline {2}Background}{11}}
\@writefile{lof}{\addvspace {10\p@ }}
\@writefile{lot}{\addvspace {10\p@ }}
\@writefile{toc}{\contentsline {section}{\numberline {2.1}Importance of Code Size for Embedded Systems}{11}}
\@writefile{toc}{\contentsline {section}{\numberline {2.2}Compiler Terminology}{11}}
\@writefile{toc}{\contentsline {subsection}{\numberline {2.2.1}Different Phases of a Compiler}{11}}
\citation{eng-comp}
\citation{eng-comp}
\citation{eng-comp}
\citation{eng-comp}
\citation{eng-comp}
\@writefile{toc}{\contentsline {subsection}{\numberline {2.2.2}Intermediate Representation}{12}}
\@writefile{toc}{\contentsline {subsection}{\numberline {2.2.3}Control Flow Graphs and Basic Blocks}{12}}
\citation{eng-comp}
\citation{dragon}
\citation{eng-comp}
\citation{eng-comp}
\citation{eng-comp}
\@writefile{toc}{\contentsline {subsection}{\numberline {2.2.4}Dominance and Loops}{13}}
\@writefile{toc}{\contentsline {subsection}{\numberline {2.2.5}SSA Form and Phi Instructions}{13}}
\citation{llvm-analysis}
\citation{llvm-writing}
\citation{llvm-doxy}
\@writefile{toc}{\contentsline {section}{\numberline {2.3}LLVM}{14}}
\@writefile{toc}{\contentsline {subsection}{\numberline {2.3.1}LLVM Internal Representation}{14}}
\@writefile{toc}{\contentsline {subsection}{\numberline {2.3.2}The {\tt  opt} Tool}{14}}
\@writefile{toc}{\contentsline {subsection}{\numberline {2.3.3}Important Classes}{14}}
\@writefile{toc}{\contentsline {subsection}{\numberline {2.3.4}Passes in LLVM}{15}}
\@writefile{toc}{\contentsline {section}{\numberline {2.4}Summary}{16}}
\citation{2}
\citation{llvm-inline-cost}
\citation{Koch14}
\citation{2}
\citation{Koch14}
\citation{31}
\@writefile{toc}{\contentsline {chapter}{\numberline {3}Related Work}{17}}
\@writefile{lof}{\addvspace {10\p@ }}
\@writefile{lot}{\addvspace {10\p@ }}
\@writefile{toc}{\contentsline {section}{\numberline {3.1}Code Size Reduction}{17}}
\@writefile{toc}{\contentsline {subsection}{\numberline {3.1.1}Software Based}{17}}
\citation{24}
\citation{29}
\citation{24}
\citation{31}
\citation{13}
\citation{33}
\citation{33}
\citation{lld}
\citation{lld}
\citation{33}
\citation{Koch14}
\citation{llvm-mergefunc}
\citation{21}
\citation{19}
\@writefile{toc}{\contentsline {subsection}{\numberline {3.1.2}Hardware Assisted}{18}}
\citation{32}
\@writefile{toc}{\contentsline {section}{\numberline {3.2}Summary}{19}}
\citation{Koch14}
\@writefile{toc}{\contentsline {chapter}{\numberline {4}Loop Similarity}{21}}
\@writefile{lof}{\addvspace {10\p@ }}
\@writefile{lot}{\addvspace {10\p@ }}
\newlabel{chap:loop-sim}{{4}{21}}
\@writefile{loa}{\contentsline {algorithm}{\numberline {1}{\ignorespaces Loop similarity algorithm\relax }}{21}}
\providecommand*\caption@xref[2]{\@setref\relax\@undefined{#1}}
\newlabel{alg:loop-sim}{{1}{21}}
\citation{Dieter05}
\@writefile{toc}{\contentsline {section}{\numberline {4.1}Control Flow Graph Isomorphism Algorithm}{22}}
\newlabel{fig:graph1}{{4.1a}{22}}
\newlabel{sub@fig:graph1}{{a}{22}}
\newlabel{fig:graph2}{{4.1b}{22}}
\newlabel{sub@fig:graph2}{{b}{22}}
\@writefile{lof}{\contentsline {figure}{\numberline {4.1}{\ignorespaces Two simple control flow graphs. The ``true'' and ``false'' labels signify that the block has a branch instruction at its end, while unconditional jumps are denoted by a single edge without a label.\relax }}{22}}
\newlabel{fig:graphs}{{4.1}{22}}
\@writefile{toc}{\contentsline {subsection}{\numberline {4.1.1}The Graph Isomorphism Problem}{22}}
\citation{Koch14}
\citation{dragon}
\@writefile{toc}{\contentsline {subsection}{\numberline {4.1.2}Algorithm for Finding Isomorphisms Between Control Flow Graphs}{23}}
\@writefile{loa}{\contentsline {algorithm}{\numberline {2}{\ignorespaces Create isomorphism algorithm\relax }}{23}}
\newlabel{alg:cfg-iso}{{2}{23}}
\citation{Koch14}
\@writefile{toc}{\contentsline {section}{\numberline {4.2}Basic Block Level Similarity}{24}}
\@writefile{toc}{\contentsline {subsection}{\numberline {4.2.1}Instruction Level Equivalence}{24}}
\newlabel{sec:instruction-level-equivalence}{{4.2.1}{24}}
\citation{lin-alg}
\citation{lin-alg}
\citation{string-kernels}
\citation{algorithms}
\citation{algorithms}
\citation{algorithms}
\@writefile{toc}{\contentsline {subsection}{\numberline {4.2.2}Longest Common Subsequence Based Similarity Function}{25}}
\@writefile{toc}{\contentsline {subsection}{\numberline {4.2.3}Longest Common Subsequence Problem}{25}}
\@writefile{loa}{\contentsline {algorithm}{\numberline {3}{\ignorespaces Longest common subsequence length algorithm\relax }}{26}}
\newlabel{alg:lcs}{{3}{26}}
\@writefile{toc}{\contentsline {subsection}{\numberline {4.2.4}Obtaining the Longest Common Subsequence and the ``diff'' from the $C$ Matrix}{26}}
\newlabel{sec:obtain-lcs-diff}{{4.2.4}{26}}
\@writefile{loa}{\contentsline {algorithm}{\numberline {4}{\ignorespaces Longest common subsequence and Diff algorithm\relax }}{27}}
\newlabel{alg:lcs-diff}{{4}{27}}
\@writefile{toc}{\contentsline {section}{\numberline {4.3}Combining Similarities}{28}}
\newlabel{sec:comb-sim}{{4.3}{28}}
\@writefile{toc}{\contentsline {section}{\numberline {4.4}Summary}{29}}
\@writefile{toc}{\contentsline {chapter}{\numberline {5}Loop Merging}{31}}
\@writefile{lof}{\addvspace {10\p@ }}
\@writefile{lot}{\addvspace {10\p@ }}
\@writefile{toc}{\contentsline {section}{\numberline {5.1}Overview}{31}}
\@writefile{toc}{\contentsline {section}{\numberline {5.2}Comparing All Loops}{32}}
\newlabel{sec:comp-all-loops}{{5.2}{32}}
\@writefile{toc}{\contentsline {section}{\numberline {5.3}Profitability of Merging}{32}}
\newlabel{sec:profitability}{{5.3}{32}}
\@writefile{toc}{\contentsline {section}{\numberline {5.4}Merging Strategy}{33}}
\@writefile{toc}{\contentsline {subsection}{\numberline {5.4.1}Example}{33}}
\@writefile{lof}{\contentsline {figure}{\numberline {5.1}{\ignorespaces Two LLVM basic blocks that represent loop headers. Labels end with {\tt  :} and represent basic blocks, while their instructions are indented to the right. The source code for both headers is in the comments. We can clearly see the resemblance between the source and LLVM level representations.\relax }}{33}}
\newlabel{fig:coe}{{5.1}{33}}
\@writefile{toc}{\contentsline {subsubsection}{\numberline {5.4.1.1}Two Loops' Header Blocks}{34}}
\@writefile{toc}{\contentsline {subsubsection}{\numberline {5.4.1.2}Result of Merging Two Header Blocks}{34}}
\@writefile{lof}{\contentsline {figure}{\numberline {5.2}{\ignorespaces The result of merging the two header blocks in Figure\nobreakspace  {}5.1\hbox {}. The merging algorithm inserted extra basic blocks, branching instructions, and phi instructions to preserve the run time behaviour.\relax }}{34}}
\newlabel{fig:coe2}{{5.2}{34}}
\@writefile{toc}{\contentsline {subsection}{\numberline {5.4.2}Merging Algorithm}{35}}
\@writefile{toc}{\contentsline {subsubsection}{\numberline {5.4.2.1}Inserting Extra Control Flow}{35}}
\@writefile{lof}{\contentsline {figure}{\numberline {5.3}{\ignorespaces The diff of two basic blocks, as defined in section\nobreakspace  {}4.2.4\hbox {}. Note that this list contains all the instructions from the longest common subsequence of the two blocks, with copied instructions from one of the blocks only, and all the differing instructions that each block contains in between the instructions on the longest common subsequence.\relax }}{36}}
\newlabel{fig:coe3}{{5.3}{36}}
\@writefile{toc}{\contentsline {subsubsection}{\numberline {5.4.2.2}Phi Nodes}{36}}
\@writefile{toc}{\contentsline {subsubsection}{\numberline {5.4.2.3}Extract Loops Into a Separate Function}{37}}
\@writefile{lof}{\contentsline {figure}{\numberline {5.4}{\ignorespaces Function declaration of the two merged loops from Figures\nobreakspace  {}5.1\hbox {} and\nobreakspace  {}5.2\hbox {}. The first argument is the common externally defined but internally used value for the two loops, which is {\tt  \%i} for loop 1 and {\tt  \%j} for loop 2. The second argument is the control parameter that will execute the appropriate control flow at run time.\relax }}{37}}
\newlabel{fig:coe4}{{5.4}{37}}
\@writefile{toc}{\contentsline {section}{\numberline {5.5}Pass Parameters}{37}}
\newlabel{sec:pass-parameters}{{5.5}{37}}
\@writefile{lof}{\contentsline {figure}{\numberline {5.5}{\ignorespaces This figure shows how the merging algorithm replaced the two loops from Figure\nobreakspace  {}5.1\hbox {} with calls to the wrapper function on Figure\nobreakspace  {}5.4\hbox {}. It also shows how the parameters are passed in at the call sites, and how the control flow is fixed. \relax }}{38}}
\newlabel{fig:coe5}{{5.5}{38}}
\@writefile{lof}{\contentsline {figure}{\numberline {5.6}{\ignorespaces All tunable parameters of the loop merge pass.\relax }}{38}}
\newlabel{list:params}{{5.6}{38}}
\@writefile{toc}{\contentsline {section}{\numberline {5.6}Summary}{39}}
\@writefile{toc}{\contentsline {chapter}{\numberline {6}Experimental Methodology and Implementation Details}{41}}
\@writefile{lof}{\addvspace {10\p@ }}
\@writefile{lot}{\addvspace {10\p@ }}
\newlabel{chap:exp-meth}{{6}{41}}
\@writefile{toc}{\contentsline {section}{\numberline {6.1}Experimentation Methodology}{41}}
\newlabel{sec:experimentation-methodology}{{6.1}{41}}
\@writefile{toc}{\contentsline {subsection}{\numberline {6.1.1}Benchmarks}{41}}
\@writefile{toc}{\contentsline {subsection}{\numberline {6.1.2}Platform and Verification}{41}}
\@writefile{toc}{\contentsline {subsection}{\numberline {6.1.3}Code Size Methodology}{42}}
\@writefile{toc}{\contentsline {subsection}{\numberline {6.1.4}Run Time Methodology}{42}}
\citation{llvm-inline-cost}
\citation{Koch14}
\citation{Koch14}
\citation{llvm-writing}
\@writefile{toc}{\contentsline {subsection}{\numberline {6.1.5}Difference Between {\tt  -Os} and {\tt  -O2}}{43}}
\@writefile{toc}{\contentsline {section}{\numberline {6.2}Implementation Details}{43}}
\@writefile{toc}{\contentsline {subsection}{\numberline {6.2.1}Technologies and Software Used}{43}}
\citation{Koch14}
\citation{Koch14}
\citation{Koch14}
\@writefile{toc}{\contentsline {subsection}{\numberline {6.2.2}LLVM Implementation Details}{44}}
\@writefile{toc}{\contentsline {subsection}{\numberline {6.2.3}Code Reuse}{44}}
\@writefile{toc}{\contentsline {subsection}{\numberline {6.2.4}Limitations}{44}}
\newlabel{sec:limitations}{{6.2.4}{44}}
\@writefile{toc}{\contentsline {section}{\numberline {6.3}Summary}{45}}
\@writefile{toc}{\contentsline {chapter}{\numberline {7}Analysis}{47}}
\@writefile{lof}{\addvspace {10\p@ }}
\@writefile{lot}{\addvspace {10\p@ }}
\newlabel{chap:analysis}{{7}{47}}
\@writefile{toc}{\contentsline {section}{\numberline {7.1}Limit study}{47}}
\@writefile{lot}{\contentsline {table}{\numberline {7.1}{\ignorespaces Weak upper bound on pair-wise loop merging LLVM IR improvement\relax }}{47}}
\newlabel{tab:llvm-ir-improv}{{7.1}{47}}
\@writefile{toc}{\contentsline {subsection}{\numberline {7.1.1}Theoretical Upper Bound}{48}}
\@writefile{toc}{\contentsline {subsection}{\numberline {7.1.2}Obtaining a Tighter Bound}{48}}
\@writefile{toc}{\contentsline {section}{\numberline {7.2}Loop Statistics and Their Implications}{49}}
\newlabel{sec:loop-statistics-and-their-implications}{{7.2}{49}}
\@writefile{toc}{\contentsline {subsection}{\numberline {7.2.1}Loop Control Flow Graph Distribution}{49}}
\newlabel{sec:loop-cfg-dis}{{7.2.1}{49}}
\@writefile{lof}{\contentsline {figure}{\numberline {7.1}{\ignorespaces Distribution of all loops over different CFG sizes on a log-log scale. The vertical lines show the 80th percentile at $x=13$ and the 90th percentile at $x=23$. We can clearly see that the distribution follows a power law meaning that most loops will have small control flow graphs but there would be a few very large loops.\relax }}{49}}
\newlabel{fig:cfg_loops}{{7.1}{49}}
\@writefile{toc}{\contentsline {subsection}{\numberline {7.2.2}Loop Instruction Distribution}{50}}
\@writefile{lof}{\contentsline {figure}{\numberline {7.2}{\ignorespaces Distribution of all loops by their number of LLVM IR instructions on a log-log scale. The 80th percentile of loops is at $x=100$ while the 90th percentile is at $x=169$. The number of loops increases until $x=17$ and then follows a power law, suggesting that most loops consist of a few instructions. \relax }}{50}}
\newlabel{fig:inst_loops}{{7.2}{50}}
\@writefile{toc}{\contentsline {subsection}{\numberline {7.2.3}Loop Independence of Context}{50}}
\@writefile{lof}{\contentsline {figure}{\numberline {7.3}{\ignorespaces The $x$ axis shows the number of used externally defined values, which measures loop independence from context - the higher the number the more unprofitable it is to merge the loop. The bar plot shows the number of all loops for a particular $x$ and the vertical line at $x=10$ is the 90th percentile. The lower scatter plot shows the average number of basic blocks of a loops in that bar, while the upper scatter plot shows the average number of instructions. We can clearly see that most loops use a few externally defined values and are small in terms of CFG size and instruction count.\relax }}{51}}
\newlabel{fig:ex_defs_loops}{{7.3}{51}}
\@writefile{lof}{\contentsline {figure}{\numberline {7.4}{\ignorespaces The x axis shows the number of used externally defined values, which measures loop independence from context - the higher the number the less likely it is profitable to merge the loop. The y axis is on a log scale. The lower plot shows the cumulative sum of the lower scatter plot from Figure\nobreakspace  {}7.3\hbox {} and its 90th percentile is the left vertical line. The upper plot shows the cumulative sum of the upper scatter plot from Figure\nobreakspace  {}7.3\hbox {} and its 90th percentile is the right vertical line. Clearly most of the instruction and basic block masses are quite further away from the 90th loop percentile of Figure\nobreakspace  {}7.3\hbox {}, which is at $x=10$.\relax }}{52}}
\newlabel{fig:ex_defs_cumulative}{{7.4}{52}}
\@writefile{toc}{\contentsline {section}{\numberline {7.3}Summary}{52}}
\@writefile{toc}{\contentsline {chapter}{\numberline {8}Evaluation}{53}}
\@writefile{lof}{\addvspace {10\p@ }}
\@writefile{lot}{\addvspace {10\p@ }}
\@writefile{toc}{\contentsline {section}{\numberline {8.1}Parameter Space Exploration}{53}}
\newlabel{sec:param-exp}{{8.1}{53}}
\citation{Fog04}
\citation{eng-comp}
\@writefile{lot}{\contentsline {table}{\numberline {8.1}{\ignorespaces Common case loops parameters\relax }}{54}}
\newlabel{tab:lpar}{{8.1}{54}}
\@writefile{lot}{\contentsline {table}{\numberline {8.2}{\ignorespaces All loops parameters\relax }}{54}}
\newlabel{tab:rpar}{{8.2}{54}}
\@writefile{lot}{\contentsline {table}{\numberline {8.3}{\ignorespaces The first column of both subtables shows the different pass parameters and the second column shows the range of considered values. Table\nobreakspace  {}8.1\hbox {} shows all parameter settings when targeting ``common case loops''. Table\nobreakspace  {}8.2\hbox {} shows parameter settings for targeting all loops, which is signified by ``inf'', meaning allow loops with any value of some parameter.\relax }}{54}}
\newlabel{tab:90loops_params}{{8.3}{54}}
\@writefile{toc}{\contentsline {section}{\numberline {8.2}Code Size Results Evaluation}{54}}
\newlabel{sec:code-size-results-evaluation}{{8.2}{54}}
\@writefile{toc}{\contentsline {subsection}{\numberline {8.2.1}Interpretation of Results}{54}}
\@writefile{lof}{\contentsline {figure}{\numberline {8.1}{\ignorespaces This bar plot shows the code size reduction in percentages achieved by the best configuration setting (including the global flags {\tt  -Os} and {\tt  -O2} as a post optimisation) found for each benchmark, compared against running just the {\tt  -Os} and {\tt  -O2} baselines, when the configuration parameters were picked to target the ``common loop'' case as per the left part of Table\nobreakspace  {}8.3\hbox {}. Negative numbers signify bad performance . The best found average configuration is also given. We can clearly see that configurations with the {\tt  -Os} flag didn't perform well in most cases, and that for 5 benchmarks both comparisons had no change in the code size.\relax }}{55}}
\newlabel{fig:90loops_codesize}{{8.1}{55}}
\@writefile{lof}{\contentsline {figure}{\numberline {8.2}{\ignorespaces This bar plot shows the code size reduction in percetages achieved by the best configuration setting (including the global flags {\tt  -Os} and {\tt  -O2} as a post optimisation) found for each benchmark, compared against running just the {\tt  -Os} and {\tt  -O2} baselines, when the configuration parameters were allowed to target all loops likely to be profitable to merge as per the right part of Table\nobreakspace  {}8.3\hbox {}. Negative numbers signify bad performance. The best found average configuration is also given. We can clearly see that the results are worse than on Figure\nobreakspace  {}8.1\hbox {}, suggesting that targeting the ``common loop'' case is a better strategy.\relax }}{56}}
\newlabel{fig:all_loops_codesize}{{8.2}{56}}
\@writefile{toc}{\contentsline {subsection}{\numberline {8.2.2}Pass Parameter Configurations That Achieved Best Code Size Reduction}{57}}
\@writefile{lot}{\contentsline {table}{\numberline {8.4}{\ignorespaces Table showing best found parameter configurations per benchmark when targeting 90\% ``common case'' loops as well as best average configurations with both {\tt  -Os} and {\tt  -O2}. \relax }}{57}}
\newlabel{tab:best-conf-params-90}{{8.4}{57}}
\citation{Koch14}
\@writefile{toc}{\contentsline {section}{\numberline {8.3}Run Time Evaluation}{58}}
\@writefile{lof}{\contentsline {figure}{\numberline {8.3}{\ignorespaces Median run time speedup in percentages measured between running the loop merge pass with {\tt  -Os} or {\tt  -O2} against just running {\tt  Os} or {\tt  -O2}. Negative values signify a slowdown while NaN means that the benchmark didn't run. The benchmarks and the corresponding configurations chosen were those from Figure\nobreakspace  {}8.1\hbox {} for which there was a non-zero change in code size.\relax }}{58}}
\newlabel{fig:90loops_runtime}{{8.3}{58}}
\@writefile{lof}{\contentsline {figure}{\numberline {8.4}{\ignorespaces Median run time speedup in percentages measured between running the loop merge pass with {\tt  -Os} or {\tt  -O2} against just running {\tt  Os} or {\tt  -O2}. Negative values signify a slowdown while NaN means that the benchmark didn't run. The benchmarks and the corresponding configurations chosen were those from Figure\nobreakspace  {}8.2\hbox {} for which there was a non-zero change in code size.\relax }}{59}}
\newlabel{fig:all_loops_runtime}{{8.4}{59}}
\@writefile{toc}{\contentsline {subsection}{\numberline {8.3.1}Statistical Significance of Results}{59}}
\@writefile{lot}{\contentsline {table}{\numberline {8.5}{\ignorespaces P-values of related sample t-test between loop merge pass time measurements and baseline time measurements. The first two columns correspond to the red and blue bars of Figure\nobreakspace  {}8.3\hbox {} and the last two to those of Figure\nobreakspace  {}8.4\hbox {}. P-values of more than 0.05 show poor statistical significance and NaN represents that the benchmarks didn't run.\relax }}{59}}
\newlabel{tab:p-vals}{{8.5}{59}}
\@writefile{toc}{\contentsline {subsection}{\numberline {8.3.2}Interpretations of Results}{60}}
\@writefile{toc}{\contentsline {section}{\numberline {8.4}Summary}{60}}
\@writefile{toc}{\contentsline {chapter}{\numberline {9}Conclusion}{61}}
\@writefile{lof}{\addvspace {10\p@ }}
\@writefile{lot}{\addvspace {10\p@ }}
\@writefile{toc}{\contentsline {section}{\numberline {9.1}Summary}{61}}
\@writefile{toc}{\contentsline {section}{\numberline {9.2}Critical Analysis}{61}}
\@writefile{toc}{\contentsline {section}{\numberline {9.3}Future Work}{62}}
\bibcite{Koch14}{1}
\bibcite{llvm-writing}{2}
\bibcite{algorithms}{3}
\bibcite{Dieter05}{4}
\bibcite{dragon}{5}
\bibcite{eng-comp}{6}
\bibcite{cs143}{7}
\bibcite{Fog04}{8}
\bibcite{llvm-inline-cost}{9}
\bibcite{lin-alg}{10}
\bibcite{string-kernels}{11}
\bibcite{Pat-Hen}{12}
\bibcite{llvm-analysis}{13}
\@writefile{toc}{\contentsline {chapter}{Bibliography}{63}}
\bibcite{llvm-doxy}{14}
\bibcite{2}{15}
\bibcite{31}{16}
\bibcite{24}{17}
\bibcite{33}{18}
\bibcite{29}{19}
\bibcite{13}{20}
\bibcite{lld}{21}
\bibcite{llvm-mergefunc}{22}
\bibcite{19}{23}
\bibcite{21}{24}
\bibcite{32}{25}
\bibcite{code-dup}{26}
