HAVE YOU SOURCED?
config_resultsall_loops_os.py
lol sjeng 458.sjeng --min-sim=0.7 --min-insts=0 --max-insts=4000000 --min-num-common-values=0 --max-num-common-values=2000000 --min-num-bbs=0 --max-num-bbs=3000000 --sim-metric=1 --use-heap=1  -Os
running...
458.sjeng run time results for 10 runs:
mean: 0.0166834712029 std: 0.015999131563
actual data: [0.02110600471496582, 0.0076742172241210938, 0.0070688724517822266, 0.0078060626983642578, 0.0074791908264160156, 0.0071868896484375, 0.0077040195465087891, 0.012599945068359375, 0.028491020202636719, 0.024987936019897461, 0.054899930953979492, 0.048481941223144531, 0.051284074783325195, 0.0071430206298828125, 0.0066571235656738281, 0.0067369937896728516, 0.0067639350891113281, 0.0066661834716796875, 0.0063660144805908203, 0.0065660476684570312]
mean: 541.513576198 std: 1.44718706159
actual data: [544.87451601028442, 540.45434498786926, 541.6682391166687, 544.3997790813446, 541.54759383201599, 540.93199992179871, 542.5940260887146, 543.07280993461609, 540.23960089683533, 542.73193192481995, 540.75439095497131, 541.12840795516968, 540.55704593658447, 542.19624614715576, 541.03022789955139, 541.54196405410767, 539.80971503257751, 540.69008111953735, 541.38671803474426, 538.66188502311707]
2 tailed t-test p value: 2.38090684761e-50
done
