
ex1:     file format elf64-x86-64


Disassembly of section .init:

00000000004003b8 <.init>:
  4003b8:	48 83 ec 08          	sub    $0x8,%rsp
  4003bc:	e8 7b 00 00 00       	callq  40043c <getchar@plt+0x3c>
  4003c1:	48 83 c4 08          	add    $0x8,%rsp
  4003c5:	c3                   	retq   

Disassembly of section .plt:

00000000004003d0 <printf@plt-0x10>:
  4003d0:	ff 35 4a 05 20 00    	pushq  0x20054a(%rip)        # 600920 <getchar@plt+0x200520>
  4003d6:	ff 25 4c 05 20 00    	jmpq   *0x20054c(%rip)        # 600928 <getchar@plt+0x200528>
  4003dc:	0f 1f 40 00          	nopl   0x0(%rax)

00000000004003e0 <printf@plt>:
  4003e0:	ff 25 4a 05 20 00    	jmpq   *0x20054a(%rip)        # 600930 <getchar@plt+0x200530>
  4003e6:	68 00 00 00 00       	pushq  $0x0
  4003eb:	e9 e0 ff ff ff       	jmpq   4003d0 <printf@plt-0x10>

00000000004003f0 <__libc_start_main@plt>:
  4003f0:	ff 25 42 05 20 00    	jmpq   *0x200542(%rip)        # 600938 <getchar@plt+0x200538>
  4003f6:	68 01 00 00 00       	pushq  $0x1
  4003fb:	e9 d0 ff ff ff       	jmpq   4003d0 <printf@plt-0x10>

0000000000400400 <getchar@plt>:
  400400:	ff 25 3a 05 20 00    	jmpq   *0x20053a(%rip)        # 600940 <getchar@plt+0x200540>
  400406:	68 02 00 00 00       	pushq  $0x2
  40040b:	e9 c0 ff ff ff       	jmpq   4003d0 <printf@plt-0x10>

Disassembly of section .text:

0000000000400410 <.text>:
  400410:	31 ed                	xor    %ebp,%ebp
  400412:	49 89 d1             	mov    %rdx,%r9
  400415:	5e                   	pop    %rsi
  400416:	48 89 e2             	mov    %rsp,%rdx
  400419:	48 83 e4 f0          	and    $0xfffffffffffffff0,%rsp
  40041d:	50                   	push   %rax
  40041e:	54                   	push   %rsp
  40041f:	49 c7 c0 30 06 40 00 	mov    $0x400630,%r8
  400426:	48 c7 c1 a0 05 40 00 	mov    $0x4005a0,%rcx
  40042d:	48 c7 c7 20 05 40 00 	mov    $0x400520,%rdi
  400434:	e8 b7 ff ff ff       	callq  4003f0 <__libc_start_main@plt>
  400439:	f4                   	hlt    
  40043a:	90                   	nop
  40043b:	90                   	nop
  40043c:	48 83 ec 08          	sub    $0x8,%rsp
  400440:	48 8b 05 c9 04 20 00 	mov    0x2004c9(%rip),%rax        # 600910 <getchar@plt+0x200510>
  400447:	48 85 c0             	test   %rax,%rax
  40044a:	74 02                	je     40044e <getchar@plt+0x4e>
  40044c:	ff d0                	callq  *%rax
  40044e:	48 83 c4 08          	add    $0x8,%rsp
  400452:	c3                   	retq   
  400453:	90                   	nop
  400454:	90                   	nop
  400455:	90                   	nop
  400456:	90                   	nop
  400457:	90                   	nop
  400458:	90                   	nop
  400459:	90                   	nop
  40045a:	90                   	nop
  40045b:	90                   	nop
  40045c:	90                   	nop
  40045d:	90                   	nop
  40045e:	90                   	nop
  40045f:	90                   	nop
  400460:	b8 5f 09 60 00       	mov    $0x60095f,%eax
  400465:	55                   	push   %rbp
  400466:	48 2d 58 09 60 00    	sub    $0x600958,%rax
  40046c:	48 83 f8 0e          	cmp    $0xe,%rax
  400470:	48 89 e5             	mov    %rsp,%rbp
  400473:	77 02                	ja     400477 <getchar@plt+0x77>
  400475:	5d                   	pop    %rbp
  400476:	c3                   	retq   
  400477:	b8 00 00 00 00       	mov    $0x0,%eax
  40047c:	48 85 c0             	test   %rax,%rax
  40047f:	74 f4                	je     400475 <getchar@plt+0x75>
  400481:	5d                   	pop    %rbp
  400482:	bf 58 09 60 00       	mov    $0x600958,%edi
  400487:	ff e0                	jmpq   *%rax
  400489:	0f 1f 80 00 00 00 00 	nopl   0x0(%rax)
  400490:	b8 58 09 60 00       	mov    $0x600958,%eax
  400495:	55                   	push   %rbp
  400496:	48 2d 58 09 60 00    	sub    $0x600958,%rax
  40049c:	48 c1 f8 03          	sar    $0x3,%rax
  4004a0:	48 89 e5             	mov    %rsp,%rbp
  4004a3:	48 89 c2             	mov    %rax,%rdx
  4004a6:	48 c1 ea 3f          	shr    $0x3f,%rdx
  4004aa:	48 01 d0             	add    %rdx,%rax
  4004ad:	48 89 c6             	mov    %rax,%rsi
  4004b0:	48 d1 fe             	sar    %rsi
  4004b3:	75 02                	jne    4004b7 <getchar@plt+0xb7>
  4004b5:	5d                   	pop    %rbp
  4004b6:	c3                   	retq   
  4004b7:	ba 00 00 00 00       	mov    $0x0,%edx
  4004bc:	48 85 d2             	test   %rdx,%rdx
  4004bf:	74 f4                	je     4004b5 <getchar@plt+0xb5>
  4004c1:	5d                   	pop    %rbp
  4004c2:	bf 58 09 60 00       	mov    $0x600958,%edi
  4004c7:	ff e2                	jmpq   *%rdx
  4004c9:	0f 1f 80 00 00 00 00 	nopl   0x0(%rax)
  4004d0:	80 3d 81 04 20 00 00 	cmpb   $0x0,0x200481(%rip)        # 600958 <getchar@plt+0x200558>
  4004d7:	75 11                	jne    4004ea <getchar@plt+0xea>
  4004d9:	55                   	push   %rbp
  4004da:	48 89 e5             	mov    %rsp,%rbp
  4004dd:	e8 7e ff ff ff       	callq  400460 <getchar@plt+0x60>
  4004e2:	5d                   	pop    %rbp
  4004e3:	c6 05 6e 04 20 00 01 	movb   $0x1,0x20046e(%rip)        # 600958 <getchar@plt+0x200558>
  4004ea:	f3 c3                	repz retq 
  4004ec:	0f 1f 40 00          	nopl   0x0(%rax)
  4004f0:	48 83 3d 40 02 20 00 	cmpq   $0x0,0x200240(%rip)        # 600738 <getchar@plt+0x200338>
  4004f7:	00 
  4004f8:	74 1b                	je     400515 <getchar@plt+0x115>
  4004fa:	b8 00 00 00 00       	mov    $0x0,%eax
  4004ff:	48 85 c0             	test   %rax,%rax
  400502:	74 11                	je     400515 <getchar@plt+0x115>
  400504:	55                   	push   %rbp
  400505:	bf 38 07 60 00       	mov    $0x600738,%edi
  40050a:	48 89 e5             	mov    %rsp,%rbp
  40050d:	ff d0                	callq  *%rax
  40050f:	5d                   	pop    %rbp
  400510:	e9 7b ff ff ff       	jmpq   400490 <getchar@plt+0x90>
  400515:	e9 76 ff ff ff       	jmpq   400490 <getchar@plt+0x90>
  40051a:	90                   	nop
  40051b:	90                   	nop
  40051c:	90                   	nop
  40051d:	90                   	nop
  40051e:	90                   	nop
  40051f:	90                   	nop
  400520:	55                   	push   %rbp
  400521:	48 89 e5             	mov    %rsp,%rbp
  400524:	41 57                	push   %r15
  400526:	41 56                	push   %r14
  400528:	41 54                	push   %r12
  40052a:	53                   	push   %rbx
  40052b:	e8 d0 fe ff ff       	callq  400400 <getchar@plt>
  400530:	41 89 c7             	mov    %eax,%r15d
  400533:	e8 c8 fe ff ff       	callq  400400 <getchar@plt>
  400538:	41 89 c6             	mov    %eax,%r14d
  40053b:	45 31 e4             	xor    %r12d,%r12d
  40053e:	45 85 ff             	test   %r15d,%r15d
  400541:	7e 21                	jle    400564 <getchar@plt+0x164>
  400543:	66 66 66 66 2e 0f 1f 	data32 data32 data32 nopw %cs:0x0(%rax,%rax,1)
  40054a:	84 00 00 00 00 00 
  400550:	e8 ab fe ff ff       	callq  400400 <getchar@plt>
  400555:	89 c3                	mov    %eax,%ebx
  400557:	44 01 e3             	add    %r12d,%ebx
  40055a:	41 ff cf             	dec    %r15d
  40055d:	41 89 dc             	mov    %ebx,%r12d
  400560:	75 ee                	jne    400550 <getchar@plt+0x150>
  400562:	eb 02                	jmp    400566 <getchar@plt+0x166>
  400564:	31 db                	xor    %ebx,%ebx
  400566:	45 85 f6             	test   %r14d,%r14d
  400569:	7e 11                	jle    40057c <getchar@plt+0x17c>
  40056b:	0f 1f 44 00 00       	nopl   0x0(%rax,%rax,1)
  400570:	e8 8b fe ff ff       	callq  400400 <getchar@plt>
  400575:	01 c3                	add    %eax,%ebx
  400577:	41 ff ce             	dec    %r14d
  40057a:	75 f4                	jne    400570 <getchar@plt+0x170>
  40057c:	bf 44 06 40 00       	mov    $0x400644,%edi
  400581:	31 c0                	xor    %eax,%eax
  400583:	89 de                	mov    %ebx,%esi
  400585:	e8 56 fe ff ff       	callq  4003e0 <printf@plt>
  40058a:	31 c0                	xor    %eax,%eax
  40058c:	5b                   	pop    %rbx
  40058d:	41 5c                	pop    %r12
  40058f:	41 5e                	pop    %r14
  400591:	41 5f                	pop    %r15
  400593:	5d                   	pop    %rbp
  400594:	c3                   	retq   
  400595:	90                   	nop
  400596:	90                   	nop
  400597:	90                   	nop
  400598:	90                   	nop
  400599:	90                   	nop
  40059a:	90                   	nop
  40059b:	90                   	nop
  40059c:	90                   	nop
  40059d:	90                   	nop
  40059e:	90                   	nop
  40059f:	90                   	nop
  4005a0:	48 89 6c 24 d8       	mov    %rbp,-0x28(%rsp)
  4005a5:	4c 89 64 24 e0       	mov    %r12,-0x20(%rsp)
  4005aa:	48 8d 2d 7f 01 20 00 	lea    0x20017f(%rip),%rbp        # 600730 <getchar@plt+0x200330>
  4005b1:	4c 8d 25 70 01 20 00 	lea    0x200170(%rip),%r12        # 600728 <getchar@plt+0x200328>
  4005b8:	4c 89 6c 24 e8       	mov    %r13,-0x18(%rsp)
  4005bd:	4c 89 74 24 f0       	mov    %r14,-0x10(%rsp)
  4005c2:	4c 89 7c 24 f8       	mov    %r15,-0x8(%rsp)
  4005c7:	48 89 5c 24 d0       	mov    %rbx,-0x30(%rsp)
  4005cc:	48 83 ec 38          	sub    $0x38,%rsp
  4005d0:	4c 29 e5             	sub    %r12,%rbp
  4005d3:	41 89 fd             	mov    %edi,%r13d
  4005d6:	49 89 f6             	mov    %rsi,%r14
  4005d9:	48 c1 fd 03          	sar    $0x3,%rbp
  4005dd:	49 89 d7             	mov    %rdx,%r15
  4005e0:	e8 d3 fd ff ff       	callq  4003b8 <printf@plt-0x28>
  4005e5:	48 85 ed             	test   %rbp,%rbp
  4005e8:	74 1c                	je     400606 <getchar@plt+0x206>
  4005ea:	31 db                	xor    %ebx,%ebx
  4005ec:	0f 1f 40 00          	nopl   0x0(%rax)
  4005f0:	4c 89 fa             	mov    %r15,%rdx
  4005f3:	4c 89 f6             	mov    %r14,%rsi
  4005f6:	44 89 ef             	mov    %r13d,%edi
  4005f9:	41 ff 14 dc          	callq  *(%r12,%rbx,8)
  4005fd:	48 83 c3 01          	add    $0x1,%rbx
  400601:	48 39 eb             	cmp    %rbp,%rbx
  400604:	75 ea                	jne    4005f0 <getchar@plt+0x1f0>
  400606:	48 8b 5c 24 08       	mov    0x8(%rsp),%rbx
  40060b:	48 8b 6c 24 10       	mov    0x10(%rsp),%rbp
  400610:	4c 8b 64 24 18       	mov    0x18(%rsp),%r12
  400615:	4c 8b 6c 24 20       	mov    0x20(%rsp),%r13
  40061a:	4c 8b 74 24 28       	mov    0x28(%rsp),%r14
  40061f:	4c 8b 7c 24 30       	mov    0x30(%rsp),%r15
  400624:	48 83 c4 38          	add    $0x38,%rsp
  400628:	c3                   	retq   
  400629:	0f 1f 80 00 00 00 00 	nopl   0x0(%rax)
  400630:	f3 c3                	repz retq 
  400632:	90                   	nop
  400633:	90                   	nop

Disassembly of section .fini:

0000000000400634 <.fini>:
  400634:	48 83 ec 08          	sub    $0x8,%rsp
  400638:	48 83 c4 08          	add    $0x8,%rsp
  40063c:	c3                   	retq   
